{
  "project_info": {
    "project_number": "459791720924",
    "firebase_url": "https://knowword-7e0e3.firebaseio.com",
    "project_id": "knowword-7e0e3",
    "storage_bucket": "knowword-7e0e3.appspot.com"
  },
  "client": [
    {
      "client_info": {
        "mobilesdk_app_id": "1:459791720924:android:2a83814c72ce9d6b",
        "android_client_info": {
          "package_name": "com.ylmz.cihan.knowword"
        }
      },
      "oauth_client": [
        {
          "client_id": "459791720924-o0bjpqdl0m48hel9lo9u5k0gpimdb49u.apps.googleusercontent.com",
          "client_type": 1,
          "android_info": {
            "package_name": "com.ylmz.cihan.knowword",
            "certificate_hash": "52b84cfeada9c5a8b2d2abcbdf8429b33b49ea7c"
          }
        },
        {
          "client_id": "459791720924-vav1v5a4vi1sme5pkg1uugts4b86q6ti.apps.googleusercontent.com",
          "client_type": 3
        }
      ],
      "api_key": [
        {
          "current_key": "AIzaSyC3M3MRybn1xkqic523__ZUSr_7CNI7_hU"
        }
      ],
      "services": {
        "analytics_service": {
          "status": 1
        },
        "appinvite_service": {
          "status": 2,
          "other_platform_oauth_client": [
            {
              "client_id": "459791720924-vav1v5a4vi1sme5pkg1uugts4b86q6ti.apps.googleusercontent.com",
              "client_type": 3
            }
          ]
        },
        "ads_service": {
          "status": 2
        }
      }
    }
  ],
  "configuration_version": "1"
}